{
    "ProcessorsTree": [
        {
            "name": "stablo 1",
            "info": "razapinjujuce stablo iz knjige (stablo1.png)",
            "img": "stablo1.png",
            "processors": [
                { "address": "localhost", "neighbors": [1, 2]},
                { "address": "localhost", "neighbors": [0, 1, 2, 3, 4]},
                { "address": "localhost", "neighbors": [0, 1, 5]},
                { "address": "localhost", "neighbors": [1]},
                { "address": "localhost", "neighbors": [1, 5, 6, 7]},
                { "address": "localhost", "neighbors": [2, 4, 7]},
                { "address": "localhost", "neighbors": [4, 7]},
                { "address": "localhost", "neighbors": [4, 5, 6]}
            ]
        },
        {
            "name": "stablo_2",
            "info": "red",
            "img": "stablo2.png",
            "processors": [
                { "address": "localhost", "neighbors": [1]},
                { "address": "localhost", "neighbors": [0, 2]},
                { "address": "localhost", "neighbors": [1, 3]},
                { "address": "localhost", "neighbors": [2, 4]},
                { "address": "localhost", "neighbors": [3, 5]},
                { "address": "localhost", "neighbors": [4, 6]},
                { "address": "localhost", "neighbors": [5]}
            ]
        },
        {
            "name": "stablo_3",
            "info": "zvezda",
            "img": "stablo2.png",
            "processors": [
                { "address": "localhost", "neighbors": [2]},
                { "address": "localhost", "neighbors": [2]},
                { "address": "localhost", "neighbors": [0, 1, 3, 4]},
                { "address": "localhost", "neighbors": [2]},
                { "address": "localhost", "neighbors": [2]}
            ]
        }
    ]
}